…
Está lista atualizada em 2020 foi utilizada como base de dados inicial
para esta ferramenta.

Foi realizada uma nova atualização nomenclatural da Lista Vermelha da
Flora Ameaçada no Estado do Paraná (2020), com o pacote `R`
[flora](http://www.github.com/gustavobio/flora).

``` r
readr::read_csv("testes/ameacadasPR.csv")
#> # A tibble: 582 × 3
#>    nome.original              nome.BFG                   pr   
#>    <chr>                      <chr>                      <chr>
#>  1 Abuta selloana             Abuta selloana             RR   
#>  2 Acanthocladus brasiliensis Acanthocladus brasiliensis RR   
#>  3 Achatocarpus praecox       Achatocarpus praecox       RR   
#>  4 Achimenes ichtyostoma      <NA>                       EN   
#>  5 Acianthera adiri           Acianthera adiri           EN   
#>  6 Acianthera karlii          Acianthera karlii          EN   
#>  7 Acianthera langeana        Acianthera langeana        RR   
#>  8 Acianthera ophiantha       Acianthera ophiantha       VU   
#>  9 Acianthera tricarinata     Acianthera tricarinata     EN   
#> 10 Adenocalymma paulistarum   Adenocalymma paulistarum   RR   
#> # … with 572 more rows
```

<span style="font-size: small">(BFG ou Brasilian Flora Group, refere-se
à sigla em inglês para Grupo da Flora do Brasil).</span>

Dos 582 nomes científicos constantes na lista de ameaçadas do Paraná
(2020), 23 não foram encontrados em [Flora do Brasil
2020](http://floradobrasil.jbrj.gov.br/)

``` r
readr::read_csv("testes/ameacadasPR.csv") |> 
  dplyr::filter(is.na(nome.BFG))
#> # A tibble: 23 × 3
#>    nome.original                               nome.BFG pr   
#>    <chr>                                       <chr>    <chr>
#>  1 Achimenes ichtyostoma                       <NA>     EN   
#>  2 Aeschynomene montevidensis var. microphylla <NA>     RR   
#>  3 Begonia diaphones                           <NA>     EN   
#>  4 Begonia glabrescens                         <NA>     EN   
#>  5 Begonia klydophylla                         <NA>     EN   
#>  6 Begonia succulenta                          <NA>     EN   
#>  7 Begonia tibagiensis                         <NA>     EN   
#>  8 Byttneria catalpaefoli subsp. sidaefolia    <NA>     EN   
#>  9 Chaetoclamys psammina                       <NA>     EN   
#> 10 Echinodorus rhombifolia                     <NA>     RR   
#> # … with 13 more rows
```
…
``` r
readr::read_csv("testes/ameacadasPR.csv") |>
  dplyr::filter(is.na(nome.BFG)) |>
  dplyr::select(nome.original) |>
  purrr::flatten_chr() |>
  TNRS::TNRS() |>
  dplyr::select(Name_submitted, Name_matched, Taxonomic_status, Accepted_name,
    Source, Name_matched_url
  ) |>
  tibble::as_tibble()
#> # A tibble: 23 × 6
#>    Name_submitted     Name_matched      Taxonomic_status Accepted_name    Source
#>    <chr>              <chr>             <chr>            <chr>            <chr> 
#>  1 Achimenes ichtyos… Achimenes ichthy… "Synonym"        "Mandirola icht… "trop…
#>  2 Aeschynomene mont… Aeschynomene mon… "Synonym"        "Aeschynomene m… "trop…
#>  3 Begonia diaphones  Begonia diaphones "No opinion"     ""               "trop…
#>  4 Begonia glabresce… [No match found]  ""               ""               ""    
#>  5 Begonia klydophyl… [No match found]  ""               ""               ""    
#>  6 Begonia succulenta [No match found]  ""               ""               ""    
#>  7 Begonia tibagiens… [No match found]  ""               ""               ""    
#>  8 Byttneria catalpa… Byttneria catalp… "Accepted"       "Byttneria cata… "trop…
#>  9 Chaetoclamys psam… [No match found]  ""               ""               ""    
#> 10 Echinodorus rhomb… [No match found]  ""               ""               ""    
#> # … with 13 more rows, and 1 more variable: Name_matched_url <chr>
```
…
